#
# A fatal error has been detected by the Java Runtime Environment:
#
#  EXCEPTION_ACCESS_VIOLATION (0xc0000005) at pc=0x00007ffad75205e3, pid=9100, tid=12020
#
# JRE version: Java(TM) SE Runtime Environment 18.9 (11.0.8+10) (build 11.0.8+10-LTS)
# Java VM: Java HotSpot(TM) 64-Bit Server VM 18.9 (11.0.8+10-LTS, mixed mode, tiered, compressed oops, g1 gc, windows-amd64)
# Problematic frame:
# C  [glass.dll+0x105e3]
#
# No core dump will be written. Minidumps are not enabled by default on client versions of Windows
#
# If you would like to submit a bug report, please visit:
#   https://bugreport.java.com/bugreport/crash.jsp
# The crash happened outside the Java Virtual Machine in native code.
# See problematic frame for where to report the bug.
#

---------------  S U M M A R Y ------------

Command Line: --add-modules=javafx.base,javafx.graphics --add-reads=javafx.base=ALL-UNNAMED --add-reads=javafx.graphics=ALL-UNNAMED -javaagent:C:\Program Files\JetBrains\IntelliJ IDEA 2020.2\lib\idea_rt.jar=61651:C:\Program Files\JetBrains\IntelliJ IDEA 2020.2\bin -Dfile.encoding=UTF-8 --module-path=C:\Users\HP\.m2\repository\org\openjfx\javafx-base\11\javafx-base-11-win.jar;C:\Users\HP\.m2\repository\org\openjfx\javafx-graphics\11\javafx-graphics-11-win.jar;C:\Users\HP\IdeaProjects\NzhinuSoft-Project\target\classes;C:\Users\HP\.m2\repository\org\openjfx\javafx-controls\11\javafx-controls-11.jar;C:\Users\HP\.m2\repository\org\openjfx\javafx-controls\11\javafx-controls-11-win.jar;C:\Users\HP\.m2\repository\org\openjfx\javafx-graphics\11\javafx-graphics-11.jar;C:\Users\HP\.m2\repository\org\openjfx\javafx-base\11\javafx-base-11.jar;C:\Users\HP\.m2\repository\org\openjfx\javafx-fxml\11\javafx-fxml-11.jar;C:\Users\HP\.m2\repository\org\openjfx\javafx-fxml\11\javafx-fxml-11-win.jar;C:\Users\HP\.m2\repository\com\jfoenix\jfoenix\9.0.10\jfoenix-9.0.10.jar -Djdk.module.main=org.nzhinuSoft org.nzhinuSoft/org.nzhinuSoft.App

Host: Intel(R) Core(TM) i5-6200U CPU @ 2.30GHz, 4 cores, 7G,  Windows 10 , 64 bit Build 18362 (10.0.18362.1082)
Time: Wed Sep 23 15:11:57 2020 Afr. centrale Ouest elapsed time: 6 seconds (0d 0h 0m 6s)

---------------  T H R E A D  ---------------

Current thread (0x00000221d9954800):  JavaThread "JavaFX Application Thread" [_thread_in_native, id=12020, stack(0x0000005913700000,0x0000005913800000)]

Stack: [0x0000005913700000,0x0000005913800000],  sp=0x00000059137fb750,  free space=1005k
Native frames: (J=compiled Java code, j=interpreted, Vv=VM code, C=native code)
C  [glass.dll+0x105e3]

Java frames: (J=compiled Java code, j=interpreted, Vv=VM code)
j  com.sun.glass.ui.win.WinSystemClipboard.popMimesFromSystem()[Ljava/lang/String;+0 javafx.graphics
j  com.sun.glass.ui.win.WinSystemClipboard.mimesFromSystem()[Ljava/lang/String;+10 javafx.graphics
j  com.sun.glass.ui.SystemClipboard.getMimeTypes()[Ljava/lang/String;+16 javafx.graphics
j  com.sun.glass.ui.ClipboardAssistance.getMimeTypes()[Ljava/lang/String;+7 javafx.graphics
j  com.sun.javafx.tk.quantum.QuantumClipboard.hasContent(Ljavafx/scene/input/DataFormat;)Z+69 javafx.graphics
j  javafx.scene.input.Clipboard.hasContent(Ljavafx/scene/input/DataFormat;)Z+11 javafx.graphics
j  javafx.scene.input.Clipboard.hasString()Z+4 javafx.graphics
j  javafx.scene.control.TextInputControl.paste()V+5 javafx.controls
j  com.sun.javafx.scene.control.behavior.TextInputControlBehavior.paste()V+12 javafx.controls
j  com.sun.javafx.scene.control.behavior.TextInputControlBehavior.lambda$new$20(Ljavafx/scene/input/KeyEvent;)V+1 javafx.controls
j  com.sun.javafx.scene.control.behavior.TextInputControlBehavior$$Lambda$343.handle(Ljavafx/event/Event;)V+8 javafx.controls
j  com.sun.javafx.scene.control.behavior.TextInputControlBehavior.lambda$keyMapping$62(Ljavafx/event/EventHandler;Ljavafx/scene/input/KeyEvent;)V+7 javafx.controls
j  com.sun.javafx.scene.control.behavior.TextInputControlBehavior$$Lambda$326.handle(Ljavafx/event/Event;)V+12 javafx.controls
j  com.sun.javafx.scene.control.inputmap.InputMap.handle(Ljavafx/event/Event;)V+61 javafx.controls
j  com.sun.javafx.scene.control.inputmap.InputMap$$Lambda$283.handle(Ljavafx/event/Event;)V+5 javafx.controls
j  com.sun.javafx.event.CompositeEventHandler$NormalEventHandlerRecord.handleBubblingEvent(Ljavafx/event/Event;)V+5 javafx.base
j  com.sun.javafx.event.CompositeEventHandler.dispatchBubblingEvent(Ljavafx/event/Event;)V+28 javafx.base
J 2560 c1 com.sun.javafx.event.EventHandlerManager.dispatchBubblingEvent(Ljavafx/event/Event;)Ljavafx/event/Event; javafx.base (23 bytes) @ 0x00000221c229ce84 [0x00000221c229c8a0+0x00000000000005e4]
J 2559 c1 com.sun.javafx.event.CompositeEventDispatcher.dispatchBubblingEvent(Ljavafx/event/Event;)Ljavafx/event/Event; javafx.base (35 bytes) @ 0x00000221c229d794 [0x00000221c229d5e0+0x00000000000001b4]
J 2550 c1 com.sun.javafx.event.BasicEventDispatcher.dispatchEvent(Ljavafx/event/Event;Ljavafx/event/EventDispatchChain;)Ljavafx/event/Event; javafx.base (44 bytes) @ 0x00000221c2298d2c [0x00000221c2298a00+0x000000000000032c]
J 2471 c1 com.sun.javafx.event.EventDispatchChainImpl.dispatchEvent(Ljavafx/event/Event;)Ljavafx/event/Event; javafx.base (101 bytes) @ 0x00000221c227350c [0x00000221c2273360+0x00000000000001ac]
J 2550 c1 com.sun.javafx.event.BasicEventDispatcher.dispatchEvent(Ljavafx/event/Event;Ljavafx/event/EventDispatchChain;)Ljavafx/event/Event; javafx.base (44 bytes) @ 0x00000221c2298c44 [0x00000221c2298a00+0x0000000000000244]
J 2471 c1 com.sun.javafx.event.EventDispatchChainImpl.dispatchEvent(Ljavafx/event/Event;)Ljavafx/event/Event; javafx.base (101 bytes) @ 0x00000221c227350c [0x00000221c2273360+0x00000000000001ac]
J 2550 c1 com.sun.javafx.event.BasicEventDispatcher.dispatchEvent(Ljavafx/event/Event;Ljavafx/event/EventDispatchChain;)Ljavafx/event/Event; javafx.base (44 bytes) @ 0x00000221c2298c44 [0x00000221c2298a00+0x0000000000000244]
J 2471 c1 com.sun.javafx.event.EventDispatchChainImpl.dispatchEvent(Ljavafx/event/Event;)Ljavafx/event/Event; javafx.base (101 bytes) @ 0x00000221c227350c [0x00000221c2273360+0x00000000000001ac]
j  com.sun.javafx.event.EventUtil.fireEventImpl(Ljavafx/event/EventDispatchChain;Ljavafx/event/EventTarget;Ljavafx/event/Event;)Ljavafx/event/Event;+10 javafx.base
j  com.sun.javafx.event.EventUtil.fireEvent(Ljavafx/event/EventTarget;Ljavafx/event/Event;)Ljavafx/event/Event;+46 javafx.base
j  javafx.event.Event.fireEvent(Ljavafx/event/EventTarget;Ljavafx/event/Event;)V+30 javafx.base
j  javafx.scene.Scene$KeyHandler.process(Ljavafx/scene/input/KeyEvent;)V+34 javafx.graphics
j  javafx.scene.Scene$KeyHandler.access$1500(Ljavafx/scene/Scene$KeyHandler;Ljavafx/scene/input/KeyEvent;)V+2 javafx.graphics
j  javafx.scene.Scene.processKeyEvent(Ljavafx/scene/input/KeyEvent;)V+28 javafx.graphics
j  javafx.scene.Scene$ScenePeerListener.keyEvent(Ljavafx/scene/input/KeyEvent;)V+5 javafx.graphics
j  com.sun.javafx.tk.quantum.GlassViewEventHandler$KeyEventNotification.run()Ljava/lang/Void;+357 javafx.graphics
j  com.sun.javafx.tk.quantum.GlassViewEventHandler$KeyEventNotification.run()Ljava/lang/Object;+1 javafx.graphics
v  ~StubRoutines::call_stub
J 2648  java.security.AccessController.doPrivileged(Ljava/security/PrivilegedAction;Ljava/security/AccessControlContext;)Ljava/lang/Object; java.base@11.0.8 (0 bytes) @ 0x00000221c9449426 [0x00000221c94493c0+0x0000000000000066]
j  com.sun.javafx.tk.quantum.GlassViewEventHandler.lambda$handleKeyEvent$1()Ljava/lang/Void;+11 javafx.graphics
j  com.sun.javafx.tk.quantum.GlassViewEventHandler$$Lambda$557.get()Ljava/lang/Object;+4 javafx.graphics
j  com.sun.javafx.tk.quantum.QuantumToolkit.runWithoutRenderLock(Ljava/util/function/Supplier;)Ljava/lang/Object;+18 javafx.graphics
j  com.sun.javafx.tk.quantum.GlassViewEventHandler.handleKeyEvent(Lcom/sun/glass/ui/View;JII[CI)V+58 javafx.graphics
j  com.sun.glass.ui.View.handleKeyEvent(JII[CI)V+20 javafx.graphics
j  com.sun.glass.ui.View.notifyKey(II[CI)V+9 javafx.graphics
v  ~StubRoutines::call_stub
j  com.sun.glass.ui.win.WinApplication._runLoop(Ljava/lang/Runnable;)V+0 javafx.graphics
j  com.sun.glass.ui.win.WinApplication.lambda$runLoop$3(ILjava/lang/Runnable;)V+8 javafx.graphics
j  com.sun.glass.ui.win.WinApplication$$Lambda$97.run()V+12 javafx.graphics
j  java.lang.Thread.run()V+11 java.base@11.0.8
v  ~StubRoutines::call_stub

siginfo: EXCEPTION_ACCESS_VIOLATION (0xc0000005), reading address 0x00000221d951f0c4


Register to memory mapping:

RIP=0x00007ffad75205e3 glass.dll
RAX=0x000000000000014c is an unknown value
RBX=0x0000000000000208 is an unknown value
RCX=0x00000221b7a20000 points into unknown readable memory: 00 00 00 00 00 00 00 00
RDX=0x00000221b7a20000 points into unknown readable memory: 00 00 00 00 00 00 00 00
RSP=0x00000059137fb750 is pointing into the stack for thread: 0x00000221d9954800
RBP=0x0 is NULL
RSI=0x00000221d94f4e60 points into unknown readable memory: 43 00 3a 00 5c 00 55 00
RDI=0x0 is NULL
R8 =0x00000221b79a12c0 points into unknown readable memory: c0 0c 9a b7 21 02 00 00
R9 =0x0000000000000001 is an unknown value
R10=0x0000000000008000 is an unknown value
R11=0x00000059137fb6b0 is pointing into the stack for thread: 0x00000221d9954800
R12=0x0 is NULL
R13=0x0000000000000208 is an unknown value
R14=0x00000221e2c910d0 points into unknown readable memory: 00 00 00 00 00 00 00 00
R15=0x000000000002a260 is an unknown value


Registers:
RAX=0x000000000000014c, RBX=0x0000000000000208, RCX=0x00000221b7a20000, RDX=0x00000221b7a20000
RSP=0x00000059137fb750, RBP=0x0000000000000000, RSI=0x00000221d94f4e60, RDI=0x0000000000000000
R8 =0x00000221b79a12c0, R9 =0x0000000000000001, R10=0x0000000000008000, R11=0x00000059137fb6b0
R12=0x0000000000000000, R13=0x0000000000000208, R14=0x00000221e2c910d0, R15=0x000000000002a260
RIP=0x00007ffad75205e3, EFLAGS=0x0000000000010206

Top of Stack: (sp=0x00000059137fb750)
0x00000059137fb750:   0000000000000208 0000000000000000
0x00000059137fb760:   00000221e2c90df0 00000221e2c91130
0x00000059137fb770:   0000000020a3fb00 00007ffb00000001
0x00000059137fb780:   00000221e2c88c90 00000221e2c90df0
0x00000059137fb790:   0000022100000208 0000000000000000
0x00000059137fb7a0:   00000221d94f4e60 00007ffad6880942
0x00000059137fb7b0:   00000221e2c90b30 00000221e2c91050
0x00000059137fb7c0:   00000221e2c90e90 0000000000000000
0x00000059137fb7d0:   3f80000020a3fb00 00000221e2c88850
0x00000059137fb7e0:   000000000000020f 00000221e2fcd320
0x00000059137fb7f0:   00000221e2fd1320 00000221e2fd1320
0x00000059137fb800:   00000000000003ff 0000000000000400
0x00000059137fb810:   00000221e2c910d0 00000221e2c88870
0x00000059137fb820:   00000221e2c88870 00000221e2c88930
0x00000059137fb830:   0000000000000000 0000000000000000
0x00000059137fb840:   0000000000000000 0000000000000000 

Instructions: (pc=0x00007ffad75205e3)
0x00007ffad75205c3:   44 8b eb 41 bf 50 02 00 00 83 7c 24 28 00 b8 4c
0x00007ffad75205d3:   01 00 00 44 0f 45 f8 4d 0f af fd 48 8b 74 24 50
0x00007ffad75205e3:   41 f6 44 37 04 40 0f 84 f8 01 00 00 41 8b 44 37
0x00007ffad75205f3:   48 89 84 24 10 01 00 00 41 8b 44 37 44 89 84 24 


Stack slot to memory mapping:
stack at sp + 0 slots: 0x0000000000000208 is an unknown value
stack at sp + 1 slots: 0x0 is NULL
stack at sp + 2 slots: 0x00000221e2c90df0 points into unknown readable memory: 78 f5 c1 d9 21 02 00 00
stack at sp + 3 slots: 0x00000221e2c91130 points into unknown readable memory: 00 00 00 00 00 00 00 00
stack at sp + 4 slots: 0x0000000020a3fb00 is an unknown value
stack at sp + 5 slots: 0x00007ffb00000001 nio.dll
stack at sp + 6 slots: 0x00000221e2c88c90 points into unknown readable memory: 10 cd c8 e2 21 02 00 00
stack at sp + 7 slots: 0x00000221e2c90df0 points into unknown readable memory: 78 f5 c1 d9 21 02 00 00


---------------  P R O C E S S  ---------------

Threads class SMR info:
_java_thread_list=0x00000221d9c1e040, length=18, elements={
0x00000221b7c1d000, 0x00000221d7fc3800, 0x00000221d7fd6800, 0x00000221d8962800,
0x00000221d7fe1800, 0x00000221d7fe6800, 0x00000221d7fef000, 0x00000221d89a4000,
0x00000221d8acc000, 0x00000221d912e000, 0x00000221d8d32800, 0x00000221d9466800,
0x00000221d9273800, 0x00000221d9954800, 0x00000221d93bd800, 0x00000221d98a3000,
0x00000221d9a45800, 0x00000221d9ae2000
}

Java Threads: ( => current thread )
  0x00000221b7c1d000 JavaThread "main" [_thread_blocked, id=13020, stack(0x0000005912000000,0x0000005912100000)]
  0x00000221d7fc3800 JavaThread "Reference Handler" daemon [_thread_blocked, id=2360, stack(0x0000005912700000,0x0000005912800000)]
  0x00000221d7fd6800 JavaThread "Finalizer" daemon [_thread_blocked, id=3640, stack(0x0000005912800000,0x0000005912900000)]
  0x00000221d8962800 JavaThread "Signal Dispatcher" daemon [_thread_blocked, id=8608, stack(0x0000005912900000,0x0000005912a00000)]
  0x00000221d7fe1800 JavaThread "Attach Listener" daemon [_thread_blocked, id=4732, stack(0x0000005912a00000,0x0000005912b00000)]
  0x00000221d7fe6800 JavaThread "C2 CompilerThread0" daemon [_thread_blocked, id=6720, stack(0x0000005912b00000,0x0000005912c00000)]
  0x00000221d7fef000 JavaThread "C1 CompilerThread0" daemon [_thread_blocked, id=8600, stack(0x0000005912c00000,0x0000005912d00000)]
  0x00000221d89a4000 JavaThread "Sweeper thread" daemon [_thread_blocked, id=12976, stack(0x0000005912d00000,0x0000005912e00000)]
  0x00000221d8acc000 JavaThread "Common-Cleaner" daemon [_thread_blocked, id=12964, stack(0x0000005912e00000,0x0000005912f00000)]
  0x00000221d912e000 JavaThread "Monitor Ctrl-Break" daemon [_thread_in_native, id=10172, stack(0x0000005913000000,0x0000005913100000)]
  0x00000221d8d32800 JavaThread "Service Thread" daemon [_thread_blocked, id=5016, stack(0x0000005913100000,0x0000005913200000)]
  0x00000221d9466800 JavaThread "QuantumRenderer-0" daemon [_thread_blocked, id=9944, stack(0x0000005913300000,0x0000005913400000)]
  0x00000221d9273800 JavaThread "InvokeLaterDispatcher" daemon [_thread_blocked, id=12328, stack(0x0000005913600000,0x0000005913700000)]
=>0x00000221d9954800 JavaThread "JavaFX Application Thread" [_thread_in_native, id=12020, stack(0x0000005913700000,0x0000005913800000)]
  0x00000221d93bd800 JavaThread "Thread-1" daemon [_thread_in_native, id=2892, stack(0x0000005913b00000,0x0000005913c00000)]
  0x00000221d98a3000 JavaThread "JavaFX-Launcher" [_thread_blocked, id=9476, stack(0x0000005913c00000,0x0000005913d00000)]
  0x00000221d9a45800 JavaThread "Prism Font Disposer" daemon [_thread_blocked, id=8244, stack(0x0000005914100000,0x0000005914200000)]
  0x00000221d9ae2000 JavaThread "Cleaner-0" daemon [_thread_blocked, id=2516, stack(0x0000005914200000,0x0000005914300000)]

Other Threads:
  0x00000221d7f9d000 VMThread "VM Thread" [stack: 0x0000005912600000,0x0000005912700000] [id=3556]
  0x00000221d8e1c000 WatcherThread [stack: 0x0000005913200000,0x0000005913300000] [id=3252]
  0x00000221b7c35000 GCTaskThread "GC Thread#0" [stack: 0x0000005912100000,0x0000005912200000] [id=10924]
  0x00000221d8f49800 GCTaskThread "GC Thread#1" [stack: 0x0000005913400000,0x0000005913500000] [id=11620]
  0x00000221d8f26000 GCTaskThread "GC Thread#2" [stack: 0x0000005913500000,0x0000005913600000] [id=2220]
  0x00000221d9a45000 GCTaskThread "GC Thread#3" [stack: 0x0000005914000000,0x0000005914100000] [id=12256]
  0x00000221b7c64800 ConcurrentGCThread "G1 Main Marker" [stack: 0x0000005912200000,0x0000005912300000] [id=2676]
  0x00000221b7c65800 ConcurrentGCThread "G1 Conc#0" [stack: 0x0000005912300000,0x0000005912400000] [id=8540]
  0x00000221b7ce7800 ConcurrentGCThread "G1 Refine#0" [stack: 0x0000005912400000,0x0000005912500000] [id=11536]
  0x00000221d7e11000 ConcurrentGCThread "G1 Young RemSet Sampling" [stack: 0x0000005912500000,0x0000005912600000] [id=10340]

Threads with active compile tasks:

VM state:not at safepoint (normal execution)

VM Mutex/Monitor currently owned by a thread: None

Heap address: 0x0000000081a00000, size: 2022 MB, Compressed Oops mode: 32-bit
Narrow klass base: 0x0000000000000000, Narrow klass shift: 3
Compressed class space size: 1073741824 Address: 0x0000000100000000

Heap:
 garbage-first heap   total 131072K, used 27373K [0x0000000081a00000, 0x0000000100000000)
  region size 1024K, 26 young (26624K), 7 survivors (7168K)
 Metaspace       used 25443K, capacity 26465K, committed 26752K, reserved 1073152K
  class space    used 3198K, capacity 3612K, committed 3712K, reserved 1048576K
Heap Regions: E=young(eden), S=young(survivor), O=old, HS=humongous(starts), HC=humongous(continues), CS=collection set, F=free, A=archive, TAMS=top-at-mark-start (previous, next)
|   0|0x0000000081a00000, 0x0000000081a10c00, 0x0000000081b00000|  6%| O|  |TAMS 0x0000000081a10c00, 0x0000000081a00000| Untracked 
|   1|0x0000000081b00000, 0x0000000081c00000, 0x0000000081c00000|100%|HS|  |TAMS 0x0000000081b00000, 0x0000000081b00000| Complete 
|   2|0x0000000081c00000, 0x0000000081d00000, 0x0000000081d00000|100%|HC|  |TAMS 0x0000000081c00000, 0x0000000081c00000| Complete 
|   3|0x0000000081d00000, 0x0000000081d00000, 0x0000000081e00000|  0%| F|  |TAMS 0x0000000081d00000, 0x0000000081d00000| Untracked 
|   4|0x0000000081e00000, 0x0000000081e00000, 0x0000000081f00000|  0%| F|  |TAMS 0x0000000081e00000, 0x0000000081e00000| Untracked 
|   5|0x0000000081f00000, 0x0000000081f00000, 0x0000000082000000|  0%| F|  |TAMS 0x0000000081f00000, 0x0000000081f00000| Untracked 
|   6|0x0000000082000000, 0x0000000082000000, 0x0000000082100000|  0%| F|  |TAMS 0x0000000082000000, 0x0000000082000000| Untracked 
|   7|0x0000000082100000, 0x0000000082100000, 0x0000000082200000|  0%| F|  |TAMS 0x0000000082100000, 0x0000000082100000| Untracked 
|   8|0x0000000082200000, 0x0000000082200000, 0x0000000082300000|  0%| F|  |TAMS 0x0000000082200000, 0x0000000082200000| Untracked 
|   9|0x0000000082300000, 0x0000000082300000, 0x0000000082400000|  0%| F|  |TAMS 0x0000000082300000, 0x0000000082300000| Untracked 
|  10|0x0000000082400000, 0x0000000082400000, 0x0000000082500000|  0%| F|  |TAMS 0x0000000082400000, 0x0000000082400000| Untracked 
|  11|0x0000000082500000, 0x0000000082500000, 0x0000000082600000|  0%| F|  |TAMS 0x0000000082500000, 0x0000000082500000| Untracked 
|  12|0x0000000082600000, 0x0000000082600000, 0x0000000082700000|  0%| F|  |TAMS 0x0000000082600000, 0x0000000082600000| Untracked 
|  13|0x0000000082700000, 0x0000000082700000, 0x0000000082800000|  0%| F|  |TAMS 0x0000000082700000, 0x0000000082700000| Untracked 
|  14|0x0000000082800000, 0x0000000082800000, 0x0000000082900000|  0%| F|  |TAMS 0x0000000082800000, 0x0000000082800000| Untracked 
|  15|0x0000000082900000, 0x0000000082900000, 0x0000000082a00000|  0%| F|  |TAMS 0x0000000082900000, 0x0000000082900000| Untracked 
|  16|0x0000000082a00000, 0x0000000082a00000, 0x0000000082b00000|  0%| F|  |TAMS 0x0000000082a00000, 0x0000000082a00000| Untracked 
|  17|0x0000000082b00000, 0x0000000082b00000, 0x0000000082c00000|  0%| F|  |TAMS 0x0000000082b00000, 0x0000000082b00000| Untracked 
|  18|0x0000000082c00000, 0x0000000082c00000, 0x0000000082d00000|  0%| F|  |TAMS 0x0000000082c00000, 0x0000000082c00000| Untracked 
|  19|0x0000000082d00000, 0x0000000082d00000, 0x0000000082e00000|  0%| F|  |TAMS 0x0000000082d00000, 0x0000000082d00000| Untracked 
|  20|0x0000000082e00000, 0x0000000082e00000, 0x0000000082f00000|  0%| F|  |TAMS 0x0000000082e00000, 0x0000000082e00000| Untracked 
|  21|0x0000000082f00000, 0x0000000082f00000, 0x0000000083000000|  0%| F|  |TAMS 0x0000000082f00000, 0x0000000082f00000| Untracked 
|  22|0x0000000083000000, 0x0000000083000000, 0x0000000083100000|  0%| F|  |TAMS 0x0000000083000000, 0x0000000083000000| Untracked 
|  23|0x0000000083100000, 0x0000000083100000, 0x0000000083200000|  0%| F|  |TAMS 0x0000000083100000, 0x0000000083100000| Untracked 
|  24|0x0000000083200000, 0x0000000083200000, 0x0000000083300000|  0%| F|  |TAMS 0x0000000083200000, 0x0000000083200000| Untracked 
|  25|0x0000000083300000, 0x0000000083300000, 0x0000000083400000|  0%| F|  |TAMS 0x0000000083300000, 0x0000000083300000| Untracked 
|  26|0x0000000083400000, 0x0000000083400000, 0x0000000083500000|  0%| F|  |TAMS 0x0000000083400000, 0x0000000083400000| Untracked 
|  27|0x0000000083500000, 0x0000000083500000, 0x0000000083600000|  0%| F|  |TAMS 0x0000000083500000, 0x0000000083500000| Untracked 
|  28|0x0000000083600000, 0x0000000083600000, 0x0000000083700000|  0%| F|  |TAMS 0x0000000083600000, 0x0000000083600000| Untracked 
|  29|0x0000000083700000, 0x0000000083700000, 0x0000000083800000|  0%| F|  |TAMS 0x0000000083700000, 0x0000000083700000| Untracked 
|  30|0x0000000083800000, 0x0000000083800000, 0x0000000083900000|  0%| F|  |TAMS 0x0000000083800000, 0x0000000083800000| Untracked 
|  31|0x0000000083900000, 0x0000000083900000, 0x0000000083a00000|  0%| F|  |TAMS 0x0000000083900000, 0x0000000083900000| Untracked 
|  32|0x0000000083a00000, 0x0000000083a00000, 0x0000000083b00000|  0%| F|  |TAMS 0x0000000083a00000, 0x0000000083a00000| Untracked 
|  33|0x0000000083b00000, 0x0000000083b00000, 0x0000000083c00000|  0%| F|  |TAMS 0x0000000083b00000, 0x0000000083b00000| Untracked 
|  34|0x0000000083c00000, 0x0000000083c00000, 0x0000000083d00000|  0%| F|  |TAMS 0x0000000083c00000, 0x0000000083c00000| Untracked 
|  35|0x0000000083d00000, 0x0000000083d00000, 0x0000000083e00000|  0%| F|  |TAMS 0x0000000083d00000, 0x0000000083d00000| Untracked 
|  36|0x0000000083e00000, 0x0000000083e00000, 0x0000000083f00000|  0%| F|  |TAMS 0x0000000083e00000, 0x0000000083e00000| Untracked 
|  37|0x0000000083f00000, 0x0000000083f00000, 0x0000000084000000|  0%| F|  |TAMS 0x0000000083f00000, 0x0000000083f00000| Untracked 
|  38|0x0000000084000000, 0x0000000084000000, 0x0000000084100000|  0%| F|  |TAMS 0x0000000084000000, 0x0000000084000000| Untracked 
|  39|0x0000000084100000, 0x0000000084100000, 0x0000000084200000|  0%| F|  |TAMS 0x0000000084100000, 0x0000000084100000| Untracked 
|  40|0x0000000084200000, 0x0000000084200000, 0x0000000084300000|  0%| F|  |TAMS 0x0000000084200000, 0x0000000084200000| Untracked 
|  41|0x0000000084300000, 0x0000000084300000, 0x0000000084400000|  0%| F|  |TAMS 0x0000000084300000, 0x0000000084300000| Untracked 
|  42|0x0000000084400000, 0x0000000084400000, 0x0000000084500000|  0%| F|  |TAMS 0x0000000084400000, 0x0000000084400000| Untracked 
|  43|0x0000000084500000, 0x0000000084500000, 0x0000000084600000|  0%| F|  |TAMS 0x0000000084500000, 0x0000000084500000| Untracked 
|  44|0x0000000084600000, 0x0000000084600000, 0x0000000084700000|  0%| F|  |TAMS 0x0000000084600000, 0x0000000084600000| Untracked 
|  45|0x0000000084700000, 0x0000000084700000, 0x0000000084800000|  0%| F|  |TAMS 0x0000000084700000, 0x0000000084700000| Untracked 
|  46|0x0000000084800000, 0x0000000084800000, 0x0000000084900000|  0%| F|  |TAMS 0x0000000084800000, 0x0000000084800000| Untracked 
|  47|0x0000000084900000, 0x0000000084900000, 0x0000000084a00000|  0%| F|  |TAMS 0x0000000084900000, 0x0000000084900000| Untracked 
|  48|0x0000000084a00000, 0x0000000084a00000, 0x0000000084b00000|  0%| F|  |TAMS 0x0000000084a00000, 0x0000000084a00000| Untracked 
|  49|0x0000000084b00000, 0x0000000084b00000, 0x0000000084c00000|  0%| F|  |TAMS 0x0000000084b00000, 0x0000000084b00000| Untracked 
|  50|0x0000000084c00000, 0x0000000084c00000, 0x0000000084d00000|  0%| F|  |TAMS 0x0000000084c00000, 0x0000000084c00000| Untracked 
|  51|0x0000000084d00000, 0x0000000084d00000, 0x0000000084e00000|  0%| F|  |TAMS 0x0000000084d00000, 0x0000000084d00000| Untracked 
|  52|0x0000000084e00000, 0x0000000084e00000, 0x0000000084f00000|  0%| F|  |TAMS 0x0000000084e00000, 0x0000000084e00000| Untracked 
|  53|0x0000000084f00000, 0x0000000084f00000, 0x0000000085000000|  0%| F|  |TAMS 0x0000000084f00000, 0x0000000084f00000| Untracked 
|  54|0x0000000085000000, 0x0000000085000000, 0x0000000085100000|  0%| F|  |TAMS 0x0000000085000000, 0x0000000085000000| Untracked 
|  55|0x0000000085100000, 0x0000000085100000, 0x0000000085200000|  0%| F|  |TAMS 0x0000000085100000, 0x0000000085100000| Untracked 
|  56|0x0000000085200000, 0x0000000085200000, 0x0000000085300000|  0%| F|  |TAMS 0x0000000085200000, 0x0000000085200000| Untracked 
|  57|0x0000000085300000, 0x0000000085300000, 0x0000000085400000|  0%| F|  |TAMS 0x0000000085300000, 0x0000000085300000| Untracked 
|  58|0x0000000085400000, 0x0000000085400000, 0x0000000085500000|  0%| F|  |TAMS 0x0000000085400000, 0x0000000085400000| Untracked 
|  59|0x0000000085500000, 0x0000000085500000, 0x0000000085600000|  0%| F|  |TAMS 0x0000000085500000, 0x0000000085500000| Untracked 
|  60|0x0000000085600000, 0x0000000085600000, 0x0000000085700000|  0%| F|  |TAMS 0x0000000085600000, 0x0000000085600000| Untracked 
|  61|0x0000000085700000, 0x0000000085700000, 0x0000000085800000|  0%| F|  |TAMS 0x0000000085700000, 0x0000000085700000| Untracked 
|  62|0x0000000085800000, 0x0000000085800000, 0x0000000085900000|  0%| F|  |TAMS 0x0000000085800000, 0x0000000085800000| Untracked 
|  63|0x0000000085900000, 0x0000000085900000, 0x0000000085a00000|  0%| F|  |TAMS 0x0000000085900000, 0x0000000085900000| Untracked 
|  64|0x0000000085a00000, 0x0000000085a00000, 0x0000000085b00000|  0%| F|  |TAMS 0x0000000085a00000, 0x0000000085a00000| Untracked 
|  65|0x0000000085b00000, 0x0000000085b00000, 0x0000000085c00000|  0%| F|  |TAMS 0x0000000085b00000, 0x0000000085b00000| Untracked 
|  66|0x0000000085c00000, 0x0000000085c00000, 0x0000000085d00000|  0%| F|  |TAMS 0x0000000085c00000, 0x0000000085c00000| Untracked 
|  67|0x0000000085d00000, 0x0000000085d00000, 0x0000000085e00000|  0%| F|  |TAMS 0x0000000085d00000, 0x0000000085d00000| Untracked 
|  68|0x0000000085e00000, 0x0000000085e00000, 0x0000000085f00000|  0%| F|  |TAMS 0x0000000085e00000, 0x0000000085e00000| Untracked 
|  69|0x0000000085f00000, 0x0000000085f00000, 0x0000000086000000|  0%| F|  |TAMS 0x0000000085f00000, 0x0000000085f00000| Untracked 
|  70|0x0000000086000000, 0x0000000086000000, 0x0000000086100000|  0%| F|  |TAMS 0x0000000086000000, 0x0000000086000000| Untracked 
|  71|0x0000000086100000, 0x0000000086100000, 0x0000000086200000|  0%| F|  |TAMS 0x0000000086100000, 0x0000000086100000| Untracked 
|  72|0x0000000086200000, 0x0000000086200000, 0x0000000086300000|  0%| F|  |TAMS 0x0000000086200000, 0x0000000086200000| Untracked 
|  73|0x0000000086300000, 0x0000000086300000, 0x0000000086400000|  0%| F|  |TAMS 0x0000000086300000, 0x0000000086300000| Untracked 
|  74|0x0000000086400000, 0x0000000086400000, 0x0000000086500000|  0%| F|  |TAMS 0x0000000086400000, 0x0000000086400000| Untracked 
|  75|0x0000000086500000, 0x0000000086500000, 0x0000000086600000|  0%| F|  |TAMS 0x0000000086500000, 0x0000000086500000| Untracked 
|  76|0x0000000086600000, 0x0000000086600000, 0x0000000086700000|  0%| F|  |TAMS 0x0000000086600000, 0x0000000086600000| Untracked 
|  77|0x0000000086700000, 0x0000000086700000, 0x0000000086800000|  0%| F|  |TAMS 0x0000000086700000, 0x0000000086700000| Untracked 
|  78|0x0000000086800000, 0x0000000086800000, 0x0000000086900000|  0%| F|  |TAMS 0x0000000086800000, 0x0000000086800000| Untracked 
|  79|0x0000000086900000, 0x0000000086900000, 0x0000000086a00000|  0%| F|  |TAMS 0x0000000086900000, 0x0000000086900000| Untracked 
|  80|0x0000000086a00000, 0x0000000086a00000, 0x0000000086b00000|  0%| F|  |TAMS 0x0000000086a00000, 0x0000000086a00000| Untracked 
|  81|0x0000000086b00000, 0x0000000086b00000, 0x0000000086c00000|  0%| F|  |TAMS 0x0000000086b00000, 0x0000000086b00000| Untracked 
|  82|0x0000000086c00000, 0x0000000086c00000, 0x0000000086d00000|  0%| F|  |TAMS 0x0000000086c00000, 0x0000000086c00000| Untracked 
|  83|0x0000000086d00000, 0x0000000086d00000, 0x0000000086e00000|  0%| F|  |TAMS 0x0000000086d00000, 0x0000000086d00000| Untracked 
|  84|0x0000000086e00000, 0x0000000086e00000, 0x0000000086f00000|  0%| F|  |TAMS 0x0000000086e00000, 0x0000000086e00000| Untracked 
|  85|0x0000000086f00000, 0x0000000086f00000, 0x0000000087000000|  0%| F|  |TAMS 0x0000000086f00000, 0x0000000086f00000| Untracked 
|  86|0x0000000087000000, 0x0000000087000000, 0x0000000087100000|  0%| F|  |TAMS 0x0000000087000000, 0x0000000087000000| Untracked 
|  87|0x0000000087100000, 0x00000000871aa868, 0x0000000087200000| 66%| S|CS|TAMS 0x0000000087100000, 0x0000000087100000| Complete 
|  88|0x0000000087200000, 0x0000000087300000, 0x0000000087300000|100%| S|CS|TAMS 0x0000000087200000, 0x0000000087200000| Complete 
|  89|0x0000000087300000, 0x0000000087400000, 0x0000000087400000|100%| S|CS|TAMS 0x0000000087300000, 0x0000000087300000| Complete 
|  90|0x0000000087400000, 0x0000000087500000, 0x0000000087500000|100%| S|CS|TAMS 0x0000000087400000, 0x0000000087400000| Complete 
|  91|0x0000000087500000, 0x0000000087600000, 0x0000000087600000|100%| S|CS|TAMS 0x0000000087500000, 0x0000000087500000| Complete 
|  92|0x0000000087600000, 0x0000000087700000, 0x0000000087700000|100%| S|CS|TAMS 0x0000000087600000, 0x0000000087600000| Complete 
|  93|0x0000000087700000, 0x0000000087800000, 0x0000000087800000|100%| S|CS|TAMS 0x0000000087700000, 0x0000000087700000| Complete 
|  94|0x0000000087800000, 0x0000000087800000, 0x0000000087900000|  0%| F|  |TAMS 0x0000000087800000, 0x0000000087800000| Untracked 
|  95|0x0000000087900000, 0x0000000087900000, 0x0000000087a00000|  0%| F|  |TAMS 0x0000000087900000, 0x0000000087900000| Untracked 
|  96|0x0000000087a00000, 0x0000000087a00000, 0x0000000087b00000|  0%| F|  |TAMS 0x0000000087a00000, 0x0000000087a00000| Untracked 
|  97|0x0000000087b00000, 0x0000000087b00000, 0x0000000087c00000|  0%| F|  |TAMS 0x0000000087b00000, 0x0000000087b00000| Untracked 
|  98|0x0000000087c00000, 0x0000000087c00000, 0x0000000087d00000|  0%| F|  |TAMS 0x0000000087c00000, 0x0000000087c00000| Untracked 
|  99|0x0000000087d00000, 0x0000000087d00000, 0x0000000087e00000|  0%| F|  |TAMS 0x0000000087d00000, 0x0000000087d00000| Untracked 
| 100|0x0000000087e00000, 0x0000000087e00000, 0x0000000087f00000|  0%| F|  |TAMS 0x0000000087e00000, 0x0000000087e00000| Untracked 
| 101|0x0000000087f00000, 0x0000000087f00000, 0x0000000088000000|  0%| F|  |TAMS 0x0000000087f00000, 0x0000000087f00000| Untracked 
| 102|0x0000000088000000, 0x0000000088000000, 0x0000000088100000|  0%| F|  |TAMS 0x0000000088000000, 0x0000000088000000| Untracked 
| 103|0x0000000088100000, 0x0000000088100000, 0x0000000088200000|  0%| F|  |TAMS 0x0000000088100000, 0x0000000088100000| Untracked 
| 104|0x0000000088200000, 0x0000000088200000, 0x0000000088300000|  0%| F|  |TAMS 0x0000000088200000, 0x0000000088200000| Untracked 
| 105|0x0000000088300000, 0x0000000088300000, 0x0000000088400000|  0%| F|  |TAMS 0x0000000088300000, 0x0000000088300000| Untracked 
| 106|0x0000000088400000, 0x0000000088400000, 0x0000000088500000|  0%| F|  |TAMS 0x0000000088400000, 0x0000000088400000| Untracked 
| 107|0x0000000088500000, 0x0000000088500000, 0x0000000088600000|  0%| F|  |TAMS 0x0000000088500000, 0x0000000088500000| Untracked 
| 108|0x0000000088600000, 0x0000000088600000, 0x0000000088700000|  0%| F|  |TAMS 0x0000000088600000, 0x0000000088600000| Untracked 
| 109|0x0000000088700000, 0x00000000887eb818, 0x0000000088800000| 91%| E|  |TAMS 0x0000000088700000, 0x0000000088700000| Complete 
| 110|0x0000000088800000, 0x0000000088900000, 0x0000000088900000|100%| E|CS|TAMS 0x0000000088800000, 0x0000000088800000| Complete 
| 111|0x0000000088900000, 0x0000000088a00000, 0x0000000088a00000|100%| E|CS|TAMS 0x0000000088900000, 0x0000000088900000| Complete 
| 112|0x0000000088a00000, 0x0000000088b00000, 0x0000000088b00000|100%| E|CS|TAMS 0x0000000088a00000, 0x0000000088a00000| Complete 
| 113|0x0000000088b00000, 0x0000000088c00000, 0x0000000088c00000|100%| E|CS|TAMS 0x0000000088b00000, 0x0000000088b00000| Complete 
| 114|0x0000000088c00000, 0x0000000088d00000, 0x0000000088d00000|100%| E|CS|TAMS 0x0000000088c00000, 0x0000000088c00000| Complete 
| 115|0x0000000088d00000, 0x0000000088e00000, 0x0000000088e00000|100%| E|CS|TAMS 0x0000000088d00000, 0x0000000088d00000| Complete 
| 116|0x0000000088e00000, 0x0000000088f00000, 0x0000000088f00000|100%| E|CS|TAMS 0x0000000088e00000, 0x0000000088e00000| Complete 
| 117|0x0000000088f00000, 0x0000000089000000, 0x0000000089000000|100%| E|CS|TAMS 0x0000000088f00000, 0x0000000088f00000| Complete 
| 118|0x0000000089000000, 0x0000000089100000, 0x0000000089100000|100%| E|CS|TAMS 0x0000000089000000, 0x0000000089000000| Complete 
| 119|0x0000000089100000, 0x0000000089200000, 0x0000000089200000|100%| E|CS|TAMS 0x0000000089100000, 0x0000000089100000| Complete 
| 120|0x0000000089200000, 0x0000000089300000, 0x0000000089300000|100%| E|CS|TAMS 0x0000000089200000, 0x0000000089200000| Complete 
| 121|0x0000000089300000, 0x0000000089400000, 0x0000000089400000|100%| E|CS|TAMS 0x0000000089300000, 0x0000000089300000| Complete 
| 122|0x0000000089400000, 0x0000000089500000, 0x0000000089500000|100%| E|CS|TAMS 0x0000000089400000, 0x0000000089400000| Complete 
| 123|0x0000000089500000, 0x0000000089600000, 0x0000000089600000|100%| E|CS|TAMS 0x0000000089500000, 0x0000000089500000| Complete 
| 124|0x0000000089600000, 0x0000000089700000, 0x0000000089700000|100%| E|CS|TAMS 0x0000000089600000, 0x0000000089600000| Complete 
| 125|0x0000000089700000, 0x0000000089800000, 0x0000000089800000|100%| E|CS|TAMS 0x0000000089700000, 0x0000000089700000| Complete 
| 126|0x0000000089800000, 0x0000000089900000, 0x0000000089900000|100%| E|CS|TAMS 0x0000000089800000, 0x0000000089800000| Complete 
| 127|0x0000000089900000, 0x0000000089a00000, 0x0000000089a00000|100%| E|CS|TAMS 0x0000000089900000, 0x0000000089900000| Complete 

Card table byte_map: [0x00000221d1280000,0x00000221d1680000] _byte_map_base: 0x00000221d0e73000

Marking Bits (Prev, Next): (CMBitMap*) 0x00000221b7c5bb50, (CMBitMap*) 0x00000221b7c5bb18
 Prev Bits: [0x00000221d3a20000, 0x00000221d59b8000)
 Next Bits: [0x00000221d1a80000, 0x00000221d3a18000)

Polling page: 0x00000221b7a10000

Metaspace:

Usage:
  Non-class:     22.32 MB capacity,    21.72 MB ( 97%) used,   494.52 KB (  2%) free+waste,   113.38 KB ( <1%) overhead. 
      Class:      3.53 MB capacity,     3.12 MB ( 89%) used,   356.25 KB ( 10%) free+waste,    57.75 KB (  2%) overhead. 
       Both:     25.84 MB capacity,    24.85 MB ( 96%) used,   850.77 KB (  3%) free+waste,   171.13 KB ( <1%) overhead. 

Virtual space:
  Non-class space:       24.00 MB reserved,      22.50 MB ( 94%) committed 
      Class space:        1.00 GB reserved,       3.63 MB ( <1%) committed 
             Both:        1.02 GB reserved,      26.13 MB (  2%) committed 

Chunk freelists:
   Non-Class:  7.38 KB
       Class:  512 bytes
        Both:  7.88 KB

CodeHeap 'non-profiled nmethods': size=120064Kb used=1272Kb max_used=1272Kb free=118791Kb
 bounds [0x00000221c9310000, 0x00000221c9580000, 0x00000221d0850000]
CodeHeap 'profiled nmethods': size=120000Kb used=5096Kb max_used=5096Kb free=114903Kb
 bounds [0x00000221c1de0000, 0x00000221c22e0000, 0x00000221c9310000]
CodeHeap 'non-nmethods': size=5696Kb used=1356Kb max_used=1400Kb free=4339Kb
 bounds [0x00000221c1850000, 0x00000221c1ac0000, 0x00000221c1de0000]
 total_blobs=3480 nmethods=2693 adapters=698
 compilation: enabled
              stopped_count=0, restarted_count=0
 full_count=0

Compilation events (10 events):
Event: 6.547 Thread 0x00000221d7fef000 2689       3       com.sun.javafx.sg.prism.NGRegion::renderContent (115 bytes)
Event: 6.552 Thread 0x00000221d7fef000 nmethod 2689 0x00000221c22d6110 code [0x00000221c22d6480, 0x00000221c22d7d50]
Event: 6.552 Thread 0x00000221d7fef000 2692       3       java.util.concurrent.locks.ReentrantLock::lock (9 bytes)
Event: 6.552 Thread 0x00000221d7fef000 nmethod 2692 0x00000221c22d8410 code [0x00000221c22d8600, 0x00000221c22d8aa0]
Event: 6.552 Thread 0x00000221d7fef000 2691       3       com.sun.scenario.effect.impl.prism.ps.PPSRenderer::isImageDataCompatible (39 bytes)
Event: 6.553 Thread 0x00000221d7fef000 nmethod 2691 0x00000221c22d8c10 code [0x00000221c22d8de0, 0x00000221c22d93b0]
Event: 6.571 Thread 0x00000221d7fef000 2693       3       com.sun.javafx.scene.control.inputmap.InputMap::testInterceptor (20 bytes)
Event: 6.571 Thread 0x00000221d7fef000 nmethod 2693 0x00000221c22d9510 code [0x00000221c22d96c0, 0x00000221c22d9970]
Event: 6.571 Thread 0x00000221d7fef000 2694       3       com.sun.javafx.scene.control.inputmap.InputMap$Mapping::getInterceptor (11 bytes)
Event: 6.571 Thread 0x00000221d7fef000 nmethod 2694 0x00000221c22d9a90 code [0x00000221c22d9c40, 0x00000221c22d9f70]

GC Heap History (4 events):
Event: 0.984 GC heap before
{Heap before GC invocations=0 (full 0):
 garbage-first heap   total 131072K, used 13312K [0x0000000081a00000, 0x0000000100000000)
  region size 1024K, 14 young (14336K), 0 survivors (0K)
 Metaspace       used 9756K, capacity 10037K, committed 10112K, reserved 1058816K
  class space    used 985K, capacity 1119K, committed 1152K, reserved 1048576K
}
Event: 1.000 GC heap after
{Heap after GC invocations=1 (full 0):
 garbage-first heap   total 131072K, used 2115K [0x0000000081a00000, 0x0000000100000000)
  region size 1024K, 2 young (2048K), 2 survivors (2048K)
 Metaspace       used 9756K, capacity 10037K, committed 10112K, reserved 1058816K
  class space    used 985K, capacity 1119K, committed 1152K, reserved 1048576K
}
Event: 2.166 GC heap before
{Heap before GC invocations=1 (full 0):
 garbage-first heap   total 131072K, used 33859K [0x0000000081a00000, 0x0000000100000000)
  region size 1024K, 34 young (34816K), 2 survivors (2048K)
 Metaspace       used 20476K, capacity 21136K, committed 21296K, reserved 1069056K
  class space    used 2429K, capacity 2697K, committed 2816K, reserved 1048576K
}
Event: 2.180 GC heap after
{Heap after GC invocations=2 (full 0):
 garbage-first heap   total 131072K, used 6893K [0x0000000081a00000, 0x0000000100000000)
  region size 1024K, 7 young (7168K), 7 survivors (7168K)
 Metaspace       used 20476K, capacity 21136K, committed 21296K, reserved 1069056K
  class space    used 2429K, capacity 2697K, committed 2816K, reserved 1048576K
}

Deoptimization events (10 events):
Event: 2.041 Thread 0x00000221d9954800 Uncommon trap: reason=unstable_if action=reinterpret pc=0x00000221c931a654 method=java.lang.StringLatin1.canEncode(I)Z @ 4 c2
Event: 2.185 Thread 0x00000221d9954800 Uncommon trap: reason=class_check action=maybe_recompile pc=0x00000221c931f368 method=java.lang.String.equals(Ljava/lang/Object;)Z @ 8 c2
Event: 2.185 Thread 0x00000221d9954800 Uncommon trap: reason=class_check action=maybe_recompile pc=0x00000221c931f368 method=java.lang.String.equals(Ljava/lang/Object;)Z @ 8 c2
Event: 2.185 Thread 0x00000221d9954800 Uncommon trap: reason=class_check action=maybe_recompile pc=0x00000221c931f368 method=java.lang.String.equals(Ljava/lang/Object;)Z @ 8 c2
Event: 2.186 Thread 0x00000221d9954800 Uncommon trap: reason=class_check action=maybe_recompile pc=0x00000221c931f368 method=java.lang.String.equals(Ljava/lang/Object;)Z @ 8 c2
Event: 2.393 Thread 0x00000221d9954800 Uncommon trap: reason=unstable_if action=reinterpret pc=0x00000221c9393d60 method=java.util.HashMap.hash(Ljava/lang/Object;)I @ 1 c2
Event: 2.397 Thread 0x00000221d9954800 Uncommon trap: reason=unstable_if action=reinterpret pc=0x00000221c935352c method=java.util.HashMap.hash(Ljava/lang/Object;)I @ 1 c2
Event: 2.703 Thread 0x00000221d9466800 Uncommon trap: reason=unstable_if action=reinterpret pc=0x00000221c93e7b78 method=java.lang.invoke.LambdaForm$BasicType.basicType(C)Ljava/lang/invoke/LambdaForm$BasicType; @ 1 c2
Event: 2.708 Thread 0x00000221d9466800 Uncommon trap: reason=unstable_if action=reinterpret pc=0x00000221c93af808 method=java.lang.invoke.InvokerBytecodeGenerator.loadInsnOpcode(Ljava/lang/invoke/LambdaForm$BasicType;)I @ 8 c2
Event: 5.434 Thread 0x00000221d9954800 Uncommon trap: reason=unstable_if action=reinterpret pc=0x00000221c9346d04 method=jdk.internal.org.objectweb.asm.Type.getArgumentsAndReturnSizes(Ljava/lang/String;)I @ 47 c2

Classes redefined (0 events):
No events

Internal exceptions (10 events):
Event: 2.346 Thread 0x00000221d9954800 Exception <a 'java/lang/ClassNotFoundException'{0x00000000894033e8}: com/sun/javafx/scene/control/skin/resources/controls_fr_FR> (0x00000000894033e8) thrown at [./open/src/hotspot/share/prims/jni.cpp, line 632]
Event: 2.393 Thread 0x00000221d9954800 Implicit null exception at 0x00000221c9393b75 to 0x00000221c9393d4e
Event: 2.397 Thread 0x00000221d9954800 Implicit null exception at 0x00000221c93534af to 0x00000221c935351d
Event: 2.411 Thread 0x00000221d9954800 Exception <a 'java/lang/NoSuchMethodError'{0x00000000893d3440}: java.lang.invoke.DirectMethodHandle$Holder.invokeSpecial(Ljava/lang/Object;Ljava/lang/Object;Ljava/lang/Object;Ljava/lang/Object;Ljava/lang/Object;Ljava/lang/Object;)V> (0x00000000893d3440) t
Event: 2.579 Thread 0x00000221d9954800 Exception <a 'java/lang/NoSuchMethodError'{0x0000000088e32c88}: java.lang.invoke.Invokers$Holder.linkToTargetMethod(Ljava/lang/Object;IILjava/lang/Object;)Ljava/lang/Object;> (0x0000000088e32c88) thrown at [./open/src/hotspot/share/interpreter/linkResolve
Event: 2.635 Thread 0x00000221d9466800 Exception <a 'java/lang/NoSuchMethodError'{0x0000000088d77f08}: java.lang.invoke.DirectMethodHandle$Holder.invokeStaticInit(Ljava/lang/Object;Ljava/lang/Object;)I> (0x0000000088d77f08) thrown at [./open/src/hotspot/share/interpreter/linkResolver.cpp, line
Event: 2.671 Thread 0x00000221d9466800 Exception <a 'java/lang/NoSuchMethodError'{0x0000000088c78248}: java.lang.invoke.DirectMethodHandle$Holder.invokeStaticInit(Ljava/lang/Object;I)Ljava/lang/Object;> (0x0000000088c78248) thrown at [./open/src/hotspot/share/interpreter/linkResolver.cpp, line
Event: 5.435 Thread 0x00000221d9954800 Exception <a 'java/lang/NoSuchMethodError'{0x00000000888f9a58}: java.lang.invoke.DirectMethodHandle$Holder.invokeStaticInit(Ljava/lang/Object;Ljava/lang/Object;Ljava/lang/Object;)J> (0x00000000888f9a58) thrown at [./open/src/hotspot/share/interpreter/link
Event: 5.438 Thread 0x00000221d9954800 Exception <a 'java/lang/NoSuchMethodError'{0x0000000088712728}: java.lang.invoke.DirectMethodHandle$Holder.invokeStatic(Ljava/lang/Object;Ljava/lang/Object;J)Ljava/lang/Object;> (0x0000000088712728) thrown at [./open/src/hotspot/share/interpreter/linkReso
Event: 5.439 Thread 0x00000221d9954800 Exception <a 'java/lang/NoSuchMethodError'{0x00000000887188a0}: java.lang.invoke.Invokers$Holder.linkToTargetMethod(Ljava/lang/Object;JLjava/lang/Object;)Ljava/lang/Object;> (0x00000000887188a0) thrown at [./open/src/hotspot/share/interpreter/linkResolver

Events (10 events):
Event: 5.542 loading class com/sun/prism/impl/ps/CachingShapeRepState$CacheEntry
Event: 5.542 loading class com/sun/prism/impl/ps/CachingShapeRepState$CacheEntry done
Event: 6.383 loading class com/sun/javafx/tk/quantum/GlassViewEventHandler
Event: 6.383 loading class com/sun/javafx/tk/quantum/GlassViewEventHandler done
Event: 6.572 loading class java/io/ObjectInput
Event: 6.572 loading class java/io/ObjectInput done
Event: 6.572 loading class java/io/ObjectOutput
Event: 6.572 loading class java/io/ObjectOutput done
Event: 6.573 loading class java/util/regex/Pattern$SliceI
Event: 6.573 loading class java/util/regex/Pattern$SliceI done


Dynamic libraries:
0x00007ff6611a0000 - 0x00007ff6611af000 	C:\Program Files\Java\jdk-11.0.8\bin\java.exe
0x00007ffb216c0000 - 0x00007ffb218b0000 	C:\WINDOWS\SYSTEM32\ntdll.dll
0x00007ffb21590000 - 0x00007ffb21642000 	C:\WINDOWS\System32\KERNEL32.DLL
0x00007ffb1f490000 - 0x00007ffb1f735000 	C:\WINDOWS\System32\KERNELBASE.dll
0x00007ffb1e870000 - 0x00007ffb1e96a000 	C:\WINDOWS\System32\ucrtbase.dll
0x00007ffb1aa50000 - 0x00007ffb1aa68000 	C:\Program Files\Java\jdk-11.0.8\bin\jli.dll
0x00007ffb20230000 - 0x00007ffb202d3000 	C:\WINDOWS\System32\ADVAPI32.dll
0x00007ffb204e0000 - 0x00007ffb2057e000 	C:\WINDOWS\System32\msvcrt.dll
0x00007ffb20b70000 - 0x00007ffb20c07000 	C:\WINDOWS\System32\sechost.dll
0x00007ffb20ce0000 - 0x00007ffb20e00000 	C:\WINDOWS\System32\RPCRT4.dll
0x00007ffb1f740000 - 0x00007ffb1f8d5000 	C:\WINDOWS\System32\USER32.dll
0x00007ffb1aa30000 - 0x00007ffb1aa45000 	C:\Program Files\Java\jdk-11.0.8\bin\VCRUNTIME140.dll
0x00007ffb1ea40000 - 0x00007ffb1ea61000 	C:\WINDOWS\System32\win32u.dll
0x00007ffb14170000 - 0x00007ffb143f4000 	C:\WINDOWS\WinSxS\amd64_microsoft.windows.common-controls_6595b64144ccf1df_6.0.18362.1082_none_9e8193e1e45b25c1\COMCTL32.dll
0x00007ffb210a0000 - 0x00007ffb213d5000 	C:\WINDOWS\System32\combase.dll
0x00007ffb1ec90000 - 0x00007ffb1ed10000 	C:\WINDOWS\System32\bcryptPrimitives.dll
0x00007ffb202e0000 - 0x00007ffb20306000 	C:\WINDOWS\System32\GDI32.dll
0x00007ffb1e620000 - 0x00007ffb1e7b6000 	C:\WINDOWS\System32\gdi32full.dll
0x00007ffb1ebf0000 - 0x00007ffb1ec8e000 	C:\WINDOWS\System32\msvcp_win.dll
0x00007ffb15f40000 - 0x00007ffb15f4a000 	C:\WINDOWS\SYSTEM32\VERSION.dll
0x00007ffb20440000 - 0x00007ffb2046e000 	C:\WINDOWS\System32\IMM32.DLL
0x00007ffb0e4b0000 - 0x00007ffb0e54b000 	C:\Program Files\Java\jdk-11.0.8\bin\msvcp140.dll
0x00007ffad65c0000 - 0x00007ffad70a6000 	C:\Program Files\Java\jdk-11.0.8\bin\server\jvm.dll
0x00007ffb1f9f0000 - 0x00007ffb1f9f8000 	C:\WINDOWS\System32\PSAPI.DLL
0x00007ffb1d090000 - 0x00007ffb1d099000 	C:\WINDOWS\SYSTEM32\WSOCK32.dll
0x00007ffb1af10000 - 0x00007ffb1af34000 	C:\WINDOWS\SYSTEM32\WINMM.dll
0x00007ffb20470000 - 0x00007ffb204df000 	C:\WINDOWS\System32\WS2_32.dll
0x00007ffb1aee0000 - 0x00007ffb1af0d000 	C:\WINDOWS\SYSTEM32\WINMMBASE.dll
0x00007ffb1e9f0000 - 0x00007ffb1ea3a000 	C:\WINDOWS\System32\cfgmgr32.dll
0x00007ffb1e560000 - 0x00007ffb1e571000 	C:\WINDOWS\System32\kernel.appcore.dll
0x00007ffb1aa20000 - 0x00007ffb1aa30000 	C:\Program Files\Java\jdk-11.0.8\bin\verify.dll
0x00007ffb1ca80000 - 0x00007ffb1cc74000 	C:\WINDOWS\SYSTEM32\DBGHELP.DLL
0x00007ffb12e40000 - 0x00007ffb12e6a000 	C:\WINDOWS\SYSTEM32\dbgcore.DLL
0x00007ffb1a9f0000 - 0x00007ffb1aa18000 	C:\Program Files\Java\jdk-11.0.8\bin\java.dll
0x00007ffb1a9e0000 - 0x00007ffb1a9ea000 	C:\Program Files\Java\jdk-11.0.8\bin\jimage.dll
0x00007ffb0a160000 - 0x00007ffb0a16e000 	C:\Program Files\Java\jdk-11.0.8\bin\instrument.dll
0x00007ffb13dd0000 - 0x00007ffb13de6000 	C:\Program Files\Java\jdk-11.0.8\bin\zip.dll
0x00007ffb1fb40000 - 0x00007ffb20227000 	C:\WINDOWS\System32\SHELL32.dll
0x00007ffb1f940000 - 0x00007ffb1f9e9000 	C:\WINDOWS\System32\shcore.dll
0x00007ffb1ed10000 - 0x00007ffb1f490000 	C:\WINDOWS\System32\windows.storage.dll
0x00007ffb1e5f0000 - 0x00007ffb1e613000 	C:\WINDOWS\System32\profapi.dll
0x00007ffb1e5a0000 - 0x00007ffb1e5ea000 	C:\WINDOWS\System32\powrprof.dll
0x00007ffb1e550000 - 0x00007ffb1e560000 	C:\WINDOWS\System32\UMPDC.dll
0x00007ffb21030000 - 0x00007ffb21082000 	C:\WINDOWS\System32\shlwapi.dll
0x00007ffb1e970000 - 0x00007ffb1e987000 	C:\WINDOWS\System32\cryptsp.dll
0x00007ffb13d80000 - 0x00007ffb13d99000 	C:\Program Files\Java\jdk-11.0.8\bin\net.dll
0x00007ffb161c0000 - 0x00007ffb162b0000 	C:\WINDOWS\SYSTEM32\WINHTTP.dll
0x00007ffb1dda0000 - 0x00007ffb1de07000 	C:\WINDOWS\system32\mswsock.dll
0x00007ffb00000000 - 0x00007ffb00012000 	C:\Program Files\Java\jdk-11.0.8\bin\nio.dll
0x00007ffafb4a0000 - 0x00007ffafb4ba000 	C:\Program Files\JetBrains\IntelliJ IDEA 2020.2\bin\breakgen64.dll
0x00000221d9530000 - 0x00000221d9533000 	C:\Program Files\Java\jdk-11.0.8\bin\api-ms-win-core-console-l1-1-0.dll
0x00000221d9540000 - 0x00000221d9543000 	C:\Program Files\Java\jdk-11.0.8\bin\api-ms-win-core-datetime-l1-1-0.dll
0x00000221d9550000 - 0x00000221d9553000 	C:\Program Files\Java\jdk-11.0.8\bin\api-ms-win-core-debug-l1-1-0.dll
0x00000221d9560000 - 0x00000221d9563000 	C:\Program Files\Java\jdk-11.0.8\bin\api-ms-win-core-errorhandling-l1-1-0.dll
0x00000221d9570000 - 0x00000221d9574000 	C:\Program Files\Java\jdk-11.0.8\bin\api-ms-win-core-file-l1-1-0.dll
0x00000221d9580000 - 0x00000221d9583000 	C:\Program Files\Java\jdk-11.0.8\bin\api-ms-win-core-file-l1-2-0.dll
0x00000221d9590000 - 0x00000221d9593000 	C:\Program Files\Java\jdk-11.0.8\bin\api-ms-win-core-file-l2-1-0.dll
0x00000221d95a0000 - 0x00000221d95a3000 	C:\Program Files\Java\jdk-11.0.8\bin\api-ms-win-core-handle-l1-1-0.dll
0x00000221d97f0000 - 0x00000221d97f3000 	C:\Program Files\Java\jdk-11.0.8\bin\api-ms-win-core-heap-l1-1-0.dll
0x00000221d95b0000 - 0x00000221d95b3000 	C:\Program Files\Java\jdk-11.0.8\bin\api-ms-win-core-interlocked-l1-1-0.dll
0x00000221d95c0000 - 0x00000221d95c3000 	C:\Program Files\Java\jdk-11.0.8\bin\api-ms-win-core-libraryloader-l1-1-0.dll
0x00000221d95d0000 - 0x00000221d95d3000 	C:\Program Files\Java\jdk-11.0.8\bin\api-ms-win-core-localization-l1-2-0.dll
0x00000221d95e0000 - 0x00000221d95e3000 	C:\Program Files\Java\jdk-11.0.8\bin\api-ms-win-core-memory-l1-1-0.dll
0x00000221d95f0000 - 0x00000221d95f3000 	C:\Program Files\Java\jdk-11.0.8\bin\api-ms-win-core-namedpipe-l1-1-0.dll
0x00000221d9600000 - 0x00000221d9603000 	C:\Program Files\Java\jdk-11.0.8\bin\api-ms-win-core-processenvironment-l1-1-0.dll
0x00000221d9610000 - 0x00000221d9613000 	C:\Program Files\Java\jdk-11.0.8\bin\api-ms-win-core-processthreads-l1-1-0.dll
0x00000221d9620000 - 0x00000221d9623000 	C:\Program Files\Java\jdk-11.0.8\bin\api-ms-win-core-processthreads-l1-1-1.dll
0x00000221d9630000 - 0x00000221d9633000 	C:\Program Files\Java\jdk-11.0.8\bin\api-ms-win-core-profile-l1-1-0.dll
0x00000221d9640000 - 0x00000221d9643000 	C:\Program Files\Java\jdk-11.0.8\bin\api-ms-win-core-rtlsupport-l1-1-0.dll
0x00000221d9650000 - 0x00000221d9653000 	C:\Program Files\Java\jdk-11.0.8\bin\api-ms-win-core-string-l1-1-0.dll
0x00000221d9660000 - 0x00000221d9663000 	C:\Program Files\Java\jdk-11.0.8\bin\api-ms-win-core-synch-l1-1-0.dll
0x00000221d9670000 - 0x00000221d9673000 	C:\Program Files\Java\jdk-11.0.8\bin\api-ms-win-core-synch-l1-2-0.dll
0x00000221d9680000 - 0x00000221d9683000 	C:\Program Files\Java\jdk-11.0.8\bin\api-ms-win-core-sysinfo-l1-1-0.dll
0x00000221d9690000 - 0x00000221d9693000 	C:\Program Files\Java\jdk-11.0.8\bin\api-ms-win-core-timezone-l1-1-0.dll
0x00000221d96a0000 - 0x00000221d96a3000 	C:\Program Files\Java\jdk-11.0.8\bin\api-ms-win-core-util-l1-1-0.dll
0x00000221d96b0000 - 0x00000221d96b3000 	C:\Program Files\Java\jdk-11.0.8\bin\api-ms-win-crt-conio-l1-1-0.dll
0x00000221d96c0000 - 0x00000221d96c4000 	C:\Program Files\Java\jdk-11.0.8\bin\api-ms-win-crt-convert-l1-1-0.dll
0x00000221d96d0000 - 0x00000221d96d3000 	C:\Program Files\Java\jdk-11.0.8\bin\api-ms-win-crt-environment-l1-1-0.dll
0x00000221d96e0000 - 0x00000221d96e3000 	C:\Program Files\Java\jdk-11.0.8\bin\api-ms-win-crt-filesystem-l1-1-0.dll
0x00000221d96f0000 - 0x00000221d96f3000 	C:\Program Files\Java\jdk-11.0.8\bin\api-ms-win-crt-heap-l1-1-0.dll
0x00000221d9700000 - 0x00000221d9703000 	C:\Program Files\Java\jdk-11.0.8\bin\api-ms-win-crt-locale-l1-1-0.dll
0x00000221d9710000 - 0x00000221d9715000 	C:\Program Files\Java\jdk-11.0.8\bin\api-ms-win-crt-math-l1-1-0.dll
0x00000221d9720000 - 0x00000221d9725000 	C:\Program Files\Java\jdk-11.0.8\bin\api-ms-win-crt-multibyte-l1-1-0.dll
0x00000221d9730000 - 0x00000221d9740000 	C:\Program Files\Java\jdk-11.0.8\bin\api-ms-win-crt-private-l1-1-0.dll
0x00000221d9740000 - 0x00000221d9743000 	C:\Program Files\Java\jdk-11.0.8\bin\api-ms-win-crt-process-l1-1-0.dll
0x00000221d9750000 - 0x00000221d9754000 	C:\Program Files\Java\jdk-11.0.8\bin\api-ms-win-crt-runtime-l1-1-0.dll
0x00000221d9760000 - 0x00000221d9764000 	C:\Program Files\Java\jdk-11.0.8\bin\api-ms-win-crt-stdio-l1-1-0.dll
0x00000221d9770000 - 0x00000221d9774000 	C:\Program Files\Java\jdk-11.0.8\bin\api-ms-win-crt-string-l1-1-0.dll
0x00000221d9780000 - 0x00000221d9783000 	C:\Program Files\Java\jdk-11.0.8\bin\api-ms-win-crt-time-l1-1-0.dll
0x00000221d9790000 - 0x00000221d9793000 	C:\Program Files\Java\jdk-11.0.8\bin\api-ms-win-crt-utility-l1-1-0.dll
0x00007ffad5d60000 - 0x00007ffad5e5c000 	C:\Program Files\Java\jdk-11.0.8\bin\ucrtbase.dll
0x00007ffad75c0000 - 0x00007ffad7611000 	C:\Windows\System32\concrt140.dll
0x00007ffafb120000 - 0x00007ffafb143000 	C:\Users\HP\.openjfx\cache\11\prism_d3d.dll
0x00007ffad5860000 - 0x00007ffad5a27000 	C:\WINDOWS\system32\d3d9.dll
0x00007ffb1c800000 - 0x00007ffb1c82d000 	C:\WINDOWS\SYSTEM32\dwmapi.dll
0x00007ffb1d0a0000 - 0x00007ffb1d0c0000 	C:\WINDOWS\SYSTEM32\dxcore.dll
0x00007ffb1c4c0000 - 0x00007ffb1c559000 	C:\WINDOWS\system32\uxtheme.dll
0x00007ffac8cf0000 - 0x00007ffacc549000 	C:\WINDOWS\System32\DriverStore\FileRepository\ki124164.inf_amd64_85b60d2b8c3af983\igdumdim64.dll
0x00007ffb20c10000 - 0x00007ffb20cd5000 	C:\WINDOWS\System32\OLEAUT32.dll
0x00007ffb20a10000 - 0x00007ffb20b67000 	C:\WINDOWS\System32\ole32.dll
0x00007ffb205a0000 - 0x00007ffb20a10000 	C:\WINDOWS\System32\SETUPAPI.dll
0x00007ffb1ea70000 - 0x00007ffb1ea96000 	C:\WINDOWS\System32\bcrypt.dll
0x00007ffad7510000 - 0x00007ffad7555000 	C:\Users\HP\.openjfx\cache\11\glass.dll
0x00007ffb20f60000 - 0x00007ffb21030000 	C:\WINDOWS\System32\COMDLG32.dll
0x00007ffb1fa00000 - 0x00007ffb1fb35000 	C:\WINDOWS\System32\MSCTF.dll
0x00007ffb064e0000 - 0x00007ffb07ae2000 	C:\WINDOWS\System32\DriverStore\FileRepository\ki124164.inf_amd64_85b60d2b8c3af983\igc64.dll
0x00007ffafb0b0000 - 0x00007ffafb0c4000 	C:\Users\HP\.openjfx\cache\11\javafx_font.dll
0x00007ffb059c0000 - 0x00007ffb05cbe000 	C:\WINDOWS\SYSTEM32\dwrite.dll
0x00007ffb20310000 - 0x00007ffb203b2000 	C:\WINDOWS\System32\clbcatq.dll
0x00007ffb15a00000 - 0x00007ffb15baf000 	C:\WINDOWS\SYSTEM32\WindowsCodecs.dll
0x00007ffaf61d0000 - 0x00007ffaf620a000 	C:\WINDOWS\system32\dataexchange.dll
0x00007ffb1c100000 - 0x00007ffb1c2dd000 	C:\WINDOWS\system32\dcomp.dll
0x00007ffb1ba30000 - 0x00007ffb1bc8b000 	C:\WINDOWS\system32\d3d11.dll
0x00007ffb1d0c0000 - 0x00007ffb1d1ab000 	C:\WINDOWS\system32\dxgi.dll
0x00007ffb1c590000 - 0x00007ffb1c7f2000 	C:\WINDOWS\system32\twinapi.appcore.dll
0x00007ffb1cc80000 - 0x00007ffb1cca9000 	C:\WINDOWS\system32\RMCLIENT.dll
0x00007ffaf1c80000 - 0x00007ffaf1cb3000 	C:\Program Files\Common Files\Microsoft Shared\Ink\rtscom.dll
0x00007ffb09f80000 - 0x00007ffb0a01e000 	C:\WINDOWS\System32\TextInputFramework.dll
0x00007ffb1c000000 - 0x00007ffb1c0d4000 	C:\WINDOWS\System32\CoreMessaging.dll
0x00007ffb16490000 - 0x00007ffb167ba000 	C:\WINDOWS\System32\CoreUIComponents.dll
0x00007ffb1d560000 - 0x00007ffb1d591000 	C:\WINDOWS\SYSTEM32\ntmarta.dll
0x00007ffb199e0000 - 0x00007ffb19b33000 	C:\WINDOWS\SYSTEM32\wintypes.dll
0x00007ffb0f600000 - 0x00007ffb0f8a6000 	C:\WINDOWS\System32\iertutil.dll
0x00007ffaff0b0000 - 0x00007ffaff0d3000 	C:\WINDOWS\SYSTEM32\edputil.dll

dbghelp: loaded successfully - version: 4.0.5 - missing functions: none
symbol engine: initialized successfully - sym options: 0x614 - pdb path: .;C:\Program Files\Java\jdk-11.0.8\bin;C:\WINDOWS\SYSTEM32;C:\WINDOWS\WinSxS\amd64_microsoft.windows.common-controls_6595b64144ccf1df_6.0.18362.1082_none_9e8193e1e45b25c1;C:\Program Files\Java\jdk-11.0.8\bin\server;C:\Program Files\JetBrains\IntelliJ IDEA 2020.2\bin;C:\Users\HP\.openjfx\cache\11;C:\WINDOWS\System32\DriverStore\FileRepository\ki124164.inf_amd64_85b60d2b8c3af983;C:\Program Files\Common Files\Microsoft Shared\Ink

VM Arguments:
jvm_args: --add-modules=javafx.base,javafx.graphics --add-reads=javafx.base=ALL-UNNAMED --add-reads=javafx.graphics=ALL-UNNAMED -javaagent:C:\Program Files\JetBrains\IntelliJ IDEA 2020.2\lib\idea_rt.jar=61651:C:\Program Files\JetBrains\IntelliJ IDEA 2020.2\bin -Dfile.encoding=UTF-8 --module-path=C:\Users\HP\.m2\repository\org\openjfx\javafx-base\11\javafx-base-11-win.jar;C:\Users\HP\.m2\repository\org\openjfx\javafx-graphics\11\javafx-graphics-11-win.jar;C:\Users\HP\IdeaProjects\NzhinuSoft-Project\target\classes;C:\Users\HP\.m2\repository\org\openjfx\javafx-controls\11\javafx-controls-11.jar;C:\Users\HP\.m2\repository\org\openjfx\javafx-controls\11\javafx-controls-11-win.jar;C:\Users\HP\.m2\repository\org\openjfx\javafx-graphics\11\javafx-graphics-11.jar;C:\Users\HP\.m2\repository\org\openjfx\javafx-base\11\javafx-base-11.jar;C:\Users\HP\.m2\repository\org\openjfx\javafx-fxml\11\javafx-fxml-11.jar;C:\Users\HP\.m2\repository\org\openjfx\javafx-fxml\11\javafx-fxml-11-win.jar;C:\Users\HP\.m2\repository\com\jfoenix\jfoenix\9.0.10\jfoenix-9.0.10.jar -Djdk.module.main=org.nzhinuSoft 
java_command: org.nzhinuSoft/org.nzhinuSoft.App
java_class_path (initial): <not set>
Launcher Type: SUN_STANDARD

[Global flags]
     intx CICompilerCount                          = 3                                         {product} {ergonomic}
     uint ConcGCThreads                            = 1                                         {product} {ergonomic}
     uint G1ConcRefinementThreads                  = 4                                         {product} {ergonomic}
   size_t G1HeapRegionSize                         = 1048576                                   {product} {ergonomic}
    uintx GCDrainStackTargetSize                   = 64                                        {product} {ergonomic}
   size_t InitialHeapSize                          = 134217728                                 {product} {ergonomic}
   size_t MarkStackSize                            = 4194304                                   {product} {ergonomic}
   size_t MaxHeapSize                              = 2120220672                                {product} {ergonomic}
   size_t MaxNewSize                               = 1271922688                                {product} {ergonomic}
   size_t MinHeapDeltaBytes                        = 1048576                                   {product} {ergonomic}
    uintx NonNMethodCodeHeapSize                   = 5830732                                {pd product} {ergonomic}
    uintx NonProfiledCodeHeapSize                  = 122913754                              {pd product} {ergonomic}
    uintx ProfiledCodeHeapSize                     = 122913754                              {pd product} {ergonomic}
    uintx ReservedCodeCacheSize                    = 251658240                              {pd product} {ergonomic}
     bool SegmentedCodeCache                       = true                                      {product} {ergonomic}
     bool UseCompressedClassPointers               = true                                 {lp64_product} {ergonomic}
     bool UseCompressedOops                        = true                                 {lp64_product} {ergonomic}
     bool UseG1GC                                  = true                                      {product} {ergonomic}
     bool UseLargePagesIndividualAllocation        = false                                  {pd product} {ergonomic}

Logging:
Log output configuration:
 #0: stdout all=warning uptime,level,tags
 #1: stderr all=off uptime,level,tags

Environment Variables:
JAVA_HOME=C:\Program Files\Java\jdk-11.0.8
PATH=C:\Program Files\Common Files\Oracle\Java\javapath;C:\ProgramData\Oracle\Java\javapath;C:\Program Files (x86)\NVIDIA Corporation\PhysX\Common;C:\Program Files (x86)\Intel\iCLS Client\;C:\Program Files\Intel\iCLS Client\;C:\WINDOWS\system32;C:\WINDOWS;C:\WINDOWS\System32\Wbem;C:\WINDOWS\System32\WindowsPowerShell\v1.0\;C:\Program Files (x86)\Intel\Intel(R) Management Engine Components\DAL;C:\Program Files\Intel\Intel(R) Management Engine Components\DAL;C:\Program Files (x86)\Intel\Intel(R) Management Engine Components\IPT;C:\Program Files\Intel\Intel(R) Management Engine Components\IPT;C:\Program Files\dotnet\;C:\WINDOWS\System32\OpenSSH\;C:\Program Files\MATLAB\MATLAB Runtime\v90\runtime\win64;C:\Program Files\MATLAB\R2016a\runtime\win64;C:\Program Files\MATLAB\R2016a\bin;C:\Program Files\MATLAB\R2016a\polyspace\bin;C:\Program Files\Intel\WiFi\bin\;C:\Program Files\Common Files\Intel\WirelessCommon\;F:\Software\setup des logiciels\Java\jdk1.8.0_181\bin;C:\Program Files\MySQL\MySQL Server 8.0\bin;C:\Program Files (x86)\Java\jdk1.8.0_162\bin;C:\MinGW\bin;C:\Python27;C:\cygwin64\bin;C:\Program Files\nodejs\;C:\Users\HP\AppData\Local\Android\android-sdk\platform-tools;C:\Users\HP\AppData\Local\Android\Sdk;C:\gradle-6.4.1\bin;C:\SrcFlutter\flutter\bin;C:\Program Files\PuTTY\;C:\Program Files\Java\jdk-11.0.8\bin;C:\Users\HP\AppData\Local\Microsoft\WindowsApps;C:\Users\HP\AppData\Local\Programs\Microsoft VS Code\bin;C:\Users\HP\AppData\Roaming\npm;C:\Users\HP\AppData\Local\Programs\Git\cmd
USERNAME=HP
OS=Windows_NT
PROCESSOR_IDENTIFIER=Intel64 Family 6 Model 78 Stepping 3, GenuineIntel



---------------  S Y S T E M  ---------------

OS: Windows 10 , 64 bit Build 18362 (10.0.18362.1082)

CPU:total 4 (initial active 4) (2 cores per cpu, 2 threads per core) family 6 model 78 stepping 3, cmov, cx8, fxsr, mmx, sse, sse2, sse3, ssse3, sse4.1, sse4.2, popcnt, avx, avx2, aes, clmul, erms, 3dnowpref, lzcnt, ht, tsc, tscinvbit, bmi1, bmi2, adx, fma

Memory: 4k page, system-wide physical 8081M (2639M free)
TotalPageFile size 19345M (AvailPageFile size 11897M)
current process WorkingSet (physical memory assigned to process): 184M, peak: 208M
current process commit charge ("private bytes"): 301M, peak: 323M

vm_info: Java HotSpot(TM) 64-Bit Server VM (11.0.8+10-LTS) for windows-amd64 JRE (11.0.8+10-LTS), built on Jun 16 2020 05:53:08 by "mach5one" with unknown MS VC++:1916

END.
